Reproducible Research: Peer Assessment 1
…
The time series above indicates that on average, the bulk of this individuals steps are taken between between \(8\):\(30\)a.m. and \(10\)a.m., with some additional high points in the early afternoon and early evening, suggesting a fairly regular daily schedule.

Which \(5\)-minute interval, on average across all days in the dataset, contains the maximum number of steps?

activity %>%
   drop_na() %>% # remove NAs
   group_by(TimeHMS) %>% # group by interval
   summarise(MeanSteps = mean(steps), # compute mean steps in each interval over all days
             .groups = 'drop') %>% # allow grouping to drop
   arrange(desc(MeanSteps)) # arrange by calculated means in descending order

## # A tibble: 288 x 2
##    TimeHMS MeanSteps
##    <time>      <dbl>
##  1 08:35        206.
##  2 08:40        196.
##  3 08:50        183.
##  4 08:45        180.
##  5 08:30        177.
##  6 08:20        171.
##  7 08:55        167.
##  8 08:15        158.
##  9 08:25        155.
## 10 09:00        143.
## #  with 278 more rows
…
